// Jest Snapshot v1, https://goo.gl/fbAQLP

exports[`<MenuAppBar /> should render correctly 1`] = `
ShallowWrapper {
  Symbol(enzyme.__root__): [Circular],
  Symbol(enzyme.__unrendered__): <MenuAppBar
    classes={
      Object {
        "grow": Object {
          "flexGrow": 1,
        },
        "menuButton": Object {
          "marginLeft": -12,
          "marginRight": 20,
        },
        "root": Object {
          "marginBottom": 50,
        },
      }
    }
    dataAuth={
      Object {
        "user": Object {
          "email": "jorge",
        },
      }
    }
    singOut={[MockFunction]}
  />,
  Symbol(enzyme.__renderer__): Object {
    "batchedUpdates": [Function],
    "getNode": [Function],
    "render": [Function],
    "simulateError": [Function],
    "simulateEvent": [Function],
    "unmount": [Function],
  },
  Symbol(enzyme.__node__): Object {
    "instance": null,
    "key": undefined,
    "nodeType": "class",
    "props": Object {
      "children": <WithStyles(Toolbar)>
        <WithStyles(Typography)
          className={
            Object {
              "flexGrow": 1,
            }
          }
          color="inherit"
          variant="h6"
        >
          IPC indicator
        </WithStyles(Typography)>
        <div>
          <WithStyles(Chip)
            color="secondary"
            label="jorge"
            variant="outlined"
          />
          <WithStyles(IconButton)
            aria-haspopup="true"
            color="inherit"
            onClick={[Function]}
          >
            <pure(AccountCircleIcon) />
          </WithStyles(IconButton)>
          <WithStyles(Menu)
            anchorEl={null}
            anchorOrigin={
              Object {
                "horizontal": "right",
                "vertical": "top",
              }
            }
            id="menu-appbar"
            onClose={[Function]}
            open={false}
            transformOrigin={
              Object {
                "horizontal": "right",
                "vertical": "top",
              }
            }
          >
            <WithStyles(MenuItem)
              onClick={[MockFunction]}
            >
              Salir
            </WithStyles(MenuItem)>
          </WithStyles(Menu)>
        </div>
      </WithStyles(Toolbar)>,
      "className": Object {
        "marginBottom": 50,
      },
      "position": "static",
    },
    "ref": null,
    "rendered": Object {
      "instance": null,
      "key": undefined,
      "nodeType": "class",
      "props": Object {
        "children": Array [
          <WithStyles(Typography)
            className={
              Object {
                "flexGrow": 1,
              }
            }
            color="inherit"
            variant="h6"
          >
            IPC indicator
          </WithStyles(Typography)>,
          <div>
            <WithStyles(Chip)
              color="secondary"
              label="jorge"
              variant="outlined"
            />
            <WithStyles(IconButton)
              aria-haspopup="true"
              color="inherit"
              onClick={[Function]}
            >
              <pure(AccountCircleIcon) />
            </WithStyles(IconButton)>
            <WithStyles(Menu)
              anchorEl={null}
              anchorOrigin={
                Object {
                  "horizontal": "right",
                  "vertical": "top",
                }
              }
              id="menu-appbar"
              onClose={[Function]}
              open={false}
              transformOrigin={
                Object {
                  "horizontal": "right",
                  "vertical": "top",
                }
              }
            >
              <WithStyles(MenuItem)
                onClick={[MockFunction]}
              >
                Salir
              </WithStyles(MenuItem)>
            </WithStyles(Menu)>
          </div>,
        ],
      },
      "ref": null,
      "rendered": Array [
        Object {
          "instance": null,
          "key": undefined,
          "nodeType": "class",
          "props": Object {
            "children": "IPC indicator",
            "className": Object {
              "flexGrow": 1,
            },
            "color": "inherit",
            "variant": "h6",
          },
          "ref": null,
          "rendered": "IPC indicator",
          "type": [Function],
        },
        Object {
          "instance": null,
          "key": undefined,
          "nodeType": "host",
          "props": Object {
            "children": Array [
              <WithStyles(Chip)
                color="secondary"
                label="jorge"
                variant="outlined"
              />,
              <WithStyles(IconButton)
                aria-haspopup="true"
                color="inherit"
                onClick={[Function]}
              >
                <pure(AccountCircleIcon) />
              </WithStyles(IconButton)>,
              <WithStyles(Menu)
                anchorEl={null}
                anchorOrigin={
                  Object {
                    "horizontal": "right",
                    "vertical": "top",
                  }
                }
                id="menu-appbar"
                onClose={[Function]}
                open={false}
                transformOrigin={
                  Object {
                    "horizontal": "right",
                    "vertical": "top",
                  }
                }
              >
                <WithStyles(MenuItem)
                  onClick={[MockFunction]}
                >
                  Salir
                </WithStyles(MenuItem)>
              </WithStyles(Menu)>,
            ],
          },
          "ref": null,
          "rendered": Array [
            Object {
              "instance": null,
              "key": undefined,
              "nodeType": "class",
              "props": Object {
                "color": "secondary",
                "label": "jorge",
                "variant": "outlined",
              },
              "ref": null,
              "rendered": null,
              "type": [Function],
            },
            Object {
              "instance": null,
              "key": undefined,
              "nodeType": "class",
              "props": Object {
                "aria-haspopup": "true",
                "aria-owns": undefined,
                "children": <pure(AccountCircleIcon) />,
                "color": "inherit",
                "onClick": [Function],
              },
              "ref": null,
              "rendered": Object {
                "instance": null,
                "key": undefined,
                "nodeType": "class",
                "props": Object {},
                "ref": null,
                "rendered": null,
                "type": [Function],
              },
              "type": [Function],
            },
            Object {
              "instance": null,
              "key": undefined,
              "nodeType": "class",
              "props": Object {
                "anchorEl": null,
                "anchorOrigin": Object {
                  "horizontal": "right",
                  "vertical": "top",
                },
                "children": <WithStyles(MenuItem)
                  onClick={[MockFunction]}
                >
                  Salir
                </WithStyles(MenuItem)>,
                "id": "menu-appbar",
                "onClose": [Function],
                "open": false,
                "transformOrigin": Object {
                  "horizontal": "right",
                  "vertical": "top",
                },
              },
              "ref": null,
              "rendered": Object {
                "instance": null,
                "key": undefined,
                "nodeType": "class",
                "props": Object {
                  "children": "Salir",
                  "onClick": [MockFunction],
                },
                "ref": null,
                "rendered": "Salir",
                "type": [Function],
              },
              "type": [Function],
            },
          ],
          "type": "div",
        },
      ],
      "type": [Function],
    },
    "type": [Function],
  },
  Symbol(enzyme.__nodes__): Array [
    Object {
      "instance": null,
      "key": undefined,
      "nodeType": "class",
      "props": Object {
        "children": <WithStyles(Toolbar)>
          <WithStyles(Typography)
            className={
              Object {
                "flexGrow": 1,
              }
            }
            color="inherit"
            variant="h6"
          >
            IPC indicator
          </WithStyles(Typography)>
          <div>
            <WithStyles(Chip)
              color="secondary"
              label="jorge"
              variant="outlined"
            />
            <WithStyles(IconButton)
              aria-haspopup="true"
              color="inherit"
              onClick={[Function]}
            >
              <pure(AccountCircleIcon) />
            </WithStyles(IconButton)>
            <WithStyles(Menu)
              anchorEl={null}
              anchorOrigin={
                Object {
                  "horizontal": "right",
                  "vertical": "top",
                }
              }
              id="menu-appbar"
              onClose={[Function]}
              open={false}
              transformOrigin={
                Object {
                  "horizontal": "right",
                  "vertical": "top",
                }
              }
            >
              <WithStyles(MenuItem)
                onClick={[MockFunction]}
              >
                Salir
              </WithStyles(MenuItem)>
            </WithStyles(Menu)>
          </div>
        </WithStyles(Toolbar)>,
        "className": Object {
          "marginBottom": 50,
        },
        "position": "static",
      },
      "ref": null,
      "rendered": Object {
        "instance": null,
        "key": undefined,
        "nodeType": "class",
        "props": Object {
          "children": Array [
            <WithStyles(Typography)
              className={
                Object {
                  "flexGrow": 1,
                }
              }
              color="inherit"
              variant="h6"
            >
              IPC indicator
            </WithStyles(Typography)>,
            <div>
              <WithStyles(Chip)
                color="secondary"
                label="jorge"
                variant="outlined"
              />
              <WithStyles(IconButton)
                aria-haspopup="true"
                color="inherit"
                onClick={[Function]}
              >
                <pure(AccountCircleIcon) />
              </WithStyles(IconButton)>
              <WithStyles(Menu)
                anchorEl={null}
                anchorOrigin={
                  Object {
                    "horizontal": "right",
                    "vertical": "top",
                  }
                }
                id="menu-appbar"
                onClose={[Function]}
                open={false}
                transformOrigin={
                  Object {
                    "horizontal": "right",
                    "vertical": "top",
                  }
                }
              >
                <WithStyles(MenuItem)
                  onClick={[MockFunction]}
                >
                  Salir
                </WithStyles(MenuItem)>
              </WithStyles(Menu)>
            </div>,
          ],
        },
        "ref": null,
        "rendered": Array [
          Object {
            "instance": null,
            "key": undefined,
            "nodeType": "class",
            "props": Object {
              "children": "IPC indicator",
              "className": Object {
                "flexGrow": 1,
              },
              "color": "inherit",
              "variant": "h6",
            },
            "ref": null,
            "rendered": "IPC indicator",
            "type": [Function],
          },
          Object {
            "instance": null,
            "key": undefined,
            "nodeType": "host",
            "props": Object {
              "children": Array [
                <WithStyles(Chip)
                  color="secondary"
                  label="jorge"
                  variant="outlined"
                />,
                <WithStyles(IconButton)
                  aria-haspopup="true"
                  color="inherit"
                  onClick={[Function]}
                >
                  <pure(AccountCircleIcon) />
                </WithStyles(IconButton)>,
                <WithStyles(Menu)
                  anchorEl={null}
                  anchorOrigin={
                    Object {
                      "horizontal": "right",
                      "vertical": "top",
                    }
                  }
                  id="menu-appbar"
                  onClose={[Function]}
                  open={false}
                  transformOrigin={
                    Object {
                      "horizontal": "right",
                      "vertical": "top",
                    }
                  }
                >
                  <WithStyles(MenuItem)
                    onClick={[MockFunction]}
                  >
                    Salir
                  </WithStyles(MenuItem)>
                </WithStyles(Menu)>,
              ],
            },
            "ref": null,
            "rendered": Array [
              Object {
                "instance": null,
                "key": undefined,
                "nodeType": "class",
                "props": Object {
                  "color": "secondary",
                  "label": "jorge",
                  "variant": "outlined",
                },
                "ref": null,
                "rendered": null,
                "type": [Function],
              },
              Object {
                "instance": null,
                "key": undefined,
                "nodeType": "class",
                "props": Object {
                  "aria-haspopup": "true",
                  "aria-owns": undefined,
                  "children": <pure(AccountCircleIcon) />,
                  "color": "inherit",
                  "onClick": [Function],
                },
                "ref": null,
                "rendered": Object {
                  "instance": null,
                  "key": undefined,
                  "nodeType": "class",
                  "props": Object {},
                  "ref": null,
                  "rendered": null,
                  "type": [Function],
                },
                "type": [Function],
              },
              Object {
                "instance": null,
                "key": undefined,
                "nodeType": "class",
                "props": Object {
                  "anchorEl": null,
                  "anchorOrigin": Object {
                    "horizontal": "right",
                    "vertical": "top",
                  },
                  "children": <WithStyles(MenuItem)
                    onClick={[MockFunction]}
                  >
                    Salir
                  </WithStyles(MenuItem)>,
                  "id": "menu-appbar",
                  "onClose": [Function],
                  "open": false,
                  "transformOrigin": Object {
                    "horizontal": "right",
                    "vertical": "top",
                  },
                },
                "ref": null,
                "rendered": Object {
                  "instance": null,
                  "key": undefined,
                  "nodeType": "class",
                  "props": Object {
                    "children": "Salir",
                    "onClick": [MockFunction],
                  },
                  "ref": null,
                  "rendered": "Salir",
                  "type": [Function],
                },
                "type": [Function],
              },
            ],
            "type": "div",
          },
        ],
        "type": [Function],
      },
      "type": [Function],
    },
  ],
  Symbol(enzyme.__options__): Object {
    "adapter": ReactSixteenAdapter {
      "options": Object {
        "enableComponentDidUpdateOnSetState": true,
        "lifecycles": Object {
          "componentDidUpdate": Object {
            "onSetState": true,
          },
          "getDerivedStateFromProps": true,
          "getSnapshotBeforeUpdate": true,
          "setState": Object {
            "skipsComponentDidUpdateOnNullish": true,
          },
        },
      },
    },
  },
}
`;
