// Jest Snapshot v1, https://goo.gl/fbAQLP

exports[`<ReduxInputText /> should render an input password 1`] = `
<withReduxAdapter(ReduxInputText)
  input={
    Object {
      "name": "input",
      "onBlur": [MockFunction],
      "onChange": [MockFunction],
      "onDragStart": [MockFunction],
      "onDrop": [MockFunction],
      "onFocus": [MockFunction],
    }
  }
  meta={
    Object {
      "active": true,
      "asyncValidating": false,
      "autofilled": false,
      "dirty": false,
      "dispatch": [MockFunction],
      "form": "form",
      "invalid": false,
      "pristine": false,
      "submitFailed": false,
      "submitting": true,
      "touched": false,
      "valid": false,
      "visited": false,
    }
  }
  type="password"
>
  <ReduxInputText
    id="input"
    input={
      Object {
        "name": "input",
        "onBlur": [MockFunction],
        "onChange": [MockFunction],
        "onDragStart": [MockFunction],
        "onDrop": [MockFunction],
        "onFocus": [MockFunction],
      }
    }
    meta={
      Object {
        "active": true,
        "asyncValidating": false,
        "autofilled": false,
        "dirty": false,
        "dispatch": [MockFunction],
        "form": "form",
        "invalid": false,
        "pristine": false,
        "submitFailed": false,
        "submitting": true,
        "touched": false,
        "valid": false,
        "visited": false,
      }
    }
    name="input"
    onBlur={[MockFunction]}
    onChange={[MockFunction]}
    onDragStart={[MockFunction]}
    onDrop={[MockFunction]}
    onFocus={[MockFunction]}
    type="password"
  >
    <TextField
      id="input"
      input={
        Object {
          "name": "input",
          "onBlur": [MockFunction],
          "onChange": [MockFunction],
          "onDragStart": [MockFunction],
          "onDrop": [MockFunction],
          "onFocus": [MockFunction],
        }
      }
      meta={
        Object {
          "active": true,
          "asyncValidating": false,
          "autofilled": false,
          "dirty": false,
          "dispatch": [MockFunction],
          "form": "form",
          "invalid": false,
          "pristine": false,
          "submitFailed": false,
          "submitting": true,
          "touched": false,
          "valid": false,
          "visited": false,
        }
      }
      name="input"
      onBlur={[MockFunction]}
      onChange={[MockFunction]}
      onDragStart={[MockFunction]}
      onDrop={[MockFunction]}
      onFocus={[MockFunction]}
      required={false}
      select={false}
      type="password"
      variant="standard"
    >
      <WithStyles(FormControl)
        input={
          Object {
            "name": "input",
            "onBlur": [MockFunction],
            "onChange": [MockFunction],
            "onDragStart": [MockFunction],
            "onDrop": [MockFunction],
            "onFocus": [MockFunction],
          }
        }
        meta={
          Object {
            "active": true,
            "asyncValidating": false,
            "autofilled": false,
            "dirty": false,
            "dispatch": [MockFunction],
            "form": "form",
            "invalid": false,
            "pristine": false,
            "submitFailed": false,
            "submitting": true,
            "touched": false,
            "valid": false,
            "visited": false,
          }
        }
        onDragStart={[MockFunction]}
        onDrop={[MockFunction]}
        required={false}
        variant="standard"
      >
        <FormControl
          classes={
            Object {
              "fullWidth": "MuiFormControl-fullWidth-4",
              "marginDense": "MuiFormControl-marginDense-3",
              "marginNormal": "MuiFormControl-marginNormal-2",
              "root": "MuiFormControl-root-1",
            }
          }
          component="div"
          disabled={false}
          error={false}
          fullWidth={false}
          input={
            Object {
              "name": "input",
              "onBlur": [MockFunction],
              "onChange": [MockFunction],
              "onDragStart": [MockFunction],
              "onDrop": [MockFunction],
              "onFocus": [MockFunction],
            }
          }
          margin="none"
          meta={
            Object {
              "active": true,
              "asyncValidating": false,
              "autofilled": false,
              "dirty": false,
              "dispatch": [MockFunction],
              "form": "form",
              "invalid": false,
              "pristine": false,
              "submitFailed": false,
              "submitting": true,
              "touched": false,
              "valid": false,
              "visited": false,
            }
          }
          onDragStart={[MockFunction]}
          onDrop={[MockFunction]}
          required={false}
          variant="standard"
        >
          <div
            className="MuiFormControl-root-1"
            input={
              Object {
                "name": "input",
                "onBlur": [MockFunction],
                "onChange": [MockFunction],
                "onDragStart": [MockFunction],
                "onDrop": [MockFunction],
                "onFocus": [MockFunction],
              }
            }
            meta={
              Object {
                "active": true,
                "asyncValidating": false,
                "autofilled": false,
                "dirty": false,
                "dispatch": [MockFunction],
                "form": "form",
                "invalid": false,
                "pristine": false,
                "submitFailed": false,
                "submitting": true,
                "touched": false,
                "valid": false,
                "visited": false,
              }
            }
            onDragStart={[MockFunction]}
            onDrop={[MockFunction]}
          >
            <WithStyles(Input)
              id="input"
              name="input"
              onBlur={[MockFunction]}
              onChange={[MockFunction]}
              onFocus={[MockFunction]}
              type="password"
            >
              <Input
                classes={
                  Object {
                    "disabled": "MuiInput-disabled-8",
                    "error": "MuiInput-error-10",
                    "focused": "MuiInput-focused-7",
                    "formControl": "MuiInput-formControl-6",
                    "fullWidth": "MuiInput-fullWidth-12",
                    "input": "MuiInput-input-13",
                    "inputMarginDense": "MuiInput-inputMarginDense-14",
                    "inputMultiline": "MuiInput-inputMultiline-15",
                    "inputType": "MuiInput-inputType-16",
                    "inputTypeSearch": "MuiInput-inputTypeSearch-17",
                    "multiline": "MuiInput-multiline-11",
                    "root": "MuiInput-root-5",
                    "underline": "MuiInput-underline-9",
                  }
                }
                id="input"
                name="input"
                onBlur={[MockFunction]}
                onChange={[MockFunction]}
                onFocus={[MockFunction]}
                type="password"
              >
                <WithStyles(WithFormControlContext(InputBase))
                  classes={
                    Object {
                      "disabled": "MuiInput-disabled-8",
                      "error": "MuiInput-error-10",
                      "focused": "MuiInput-focused-7",
                      "formControl": "MuiInput-formControl-6",
                      "fullWidth": "MuiInput-fullWidth-12",
                      "input": "MuiInput-input-13",
                      "inputMarginDense": "MuiInput-inputMarginDense-14",
                      "inputMultiline": "MuiInput-inputMultiline-15",
                      "inputType": "MuiInput-inputType-16",
                      "inputTypeSearch": "MuiInput-inputTypeSearch-17",
                      "multiline": "MuiInput-multiline-11",
                      "root": "MuiInput-root-5 MuiInput-underline-9",
                      "underline": null,
                    }
                  }
                  fullWidth={false}
                  id="input"
                  inputComponent="input"
                  multiline={false}
                  name="input"
                  onBlur={[MockFunction]}
                  onChange={[MockFunction]}
                  onFocus={[MockFunction]}
                  type="password"
                >
                  <WithFormControlContext(InputBase)
                    classes={
                      Object {
                        "adornedEnd": "MuiInputBase-adornedEnd-23",
                        "adornedStart": "MuiInputBase-adornedStart-22",
                        "disabled": "MuiInputBase-disabled-21 MuiInput-disabled-8",
                        "error": "MuiInputBase-error-24 MuiInput-error-10",
                        "focused": "MuiInputBase-focused-20 MuiInput-focused-7",
                        "formControl": "MuiInputBase-formControl-19 MuiInput-formControl-6",
                        "fullWidth": "MuiInputBase-fullWidth-27 MuiInput-fullWidth-12",
                        "input": "MuiInputBase-input-28 MuiInput-input-13",
                        "inputAdornedEnd": "MuiInputBase-inputAdornedEnd-34",
                        "inputAdornedStart": "MuiInputBase-inputAdornedStart-33",
                        "inputMarginDense": "MuiInputBase-inputMarginDense-29 MuiInput-inputMarginDense-14",
                        "inputMultiline": "MuiInputBase-inputMultiline-30 MuiInput-inputMultiline-15",
                        "inputType": "MuiInputBase-inputType-31 MuiInput-inputType-16",
                        "inputTypeSearch": "MuiInputBase-inputTypeSearch-32 MuiInput-inputTypeSearch-17",
                        "marginDense": "MuiInputBase-marginDense-25",
                        "multiline": "MuiInputBase-multiline-26 MuiInput-multiline-11",
                        "root": "MuiInputBase-root-18 MuiInput-root-5 MuiInput-underline-9",
                      }
                    }
                    fullWidth={false}
                    id="input"
                    inputComponent="input"
                    multiline={false}
                    name="input"
                    onBlur={[MockFunction]}
                    onChange={[MockFunction]}
                    onFocus={[MockFunction]}
                    type="password"
                  >
                    <InputBase
                      classes={
                        Object {
                          "adornedEnd": "MuiInputBase-adornedEnd-23",
                          "adornedStart": "MuiInputBase-adornedStart-22",
                          "disabled": "MuiInputBase-disabled-21 MuiInput-disabled-8",
                          "error": "MuiInputBase-error-24 MuiInput-error-10",
                          "focused": "MuiInputBase-focused-20 MuiInput-focused-7",
                          "formControl": "MuiInputBase-formControl-19 MuiInput-formControl-6",
                          "fullWidth": "MuiInputBase-fullWidth-27 MuiInput-fullWidth-12",
                          "input": "MuiInputBase-input-28 MuiInput-input-13",
                          "inputAdornedEnd": "MuiInputBase-inputAdornedEnd-34",
                          "inputAdornedStart": "MuiInputBase-inputAdornedStart-33",
                          "inputMarginDense": "MuiInputBase-inputMarginDense-29 MuiInput-inputMarginDense-14",
                          "inputMultiline": "MuiInputBase-inputMultiline-30 MuiInput-inputMultiline-15",
                          "inputType": "MuiInputBase-inputType-31 MuiInput-inputType-16",
                          "inputTypeSearch": "MuiInputBase-inputTypeSearch-32 MuiInput-inputTypeSearch-17",
                          "marginDense": "MuiInputBase-marginDense-25",
                          "multiline": "MuiInputBase-multiline-26 MuiInput-multiline-11",
                          "root": "MuiInputBase-root-18 MuiInput-root-5 MuiInput-underline-9",
                        }
                      }
                      fullWidth={false}
                      id="input"
                      inputComponent="input"
                      muiFormControl={
                        Object {
                          "adornedStart": false,
                          "disabled": false,
                          "error": false,
                          "filled": false,
                          "focused": false,
                          "margin": "none",
                          "onBlur": [Function],
                          "onEmpty": [Function],
                          "onFilled": [Function],
                          "onFocus": [Function],
                          "required": false,
                          "variant": "standard",
                        }
                      }
                      multiline={false}
                      name="input"
                      onBlur={[MockFunction]}
                      onChange={[MockFunction]}
                      onFocus={[MockFunction]}
                      type="password"
                    >
                      <div
                        className="MuiInputBase-root-18 MuiInput-root-5 MuiInput-underline-9 MuiInputBase-formControl-19 MuiInput-formControl-6"
                        onClick={[Function]}
                      >
                        <input
                          aria-invalid={false}
                          className="MuiInputBase-input-28 MuiInput-input-13 MuiInputBase-inputType-31 MuiInput-inputType-16"
                          disabled={false}
                          id="input"
                          name="input"
                          onBlur={[Function]}
                          onChange={[Function]}
                          onFocus={[Function]}
                          required={false}
                          type="password"
                        />
                      </div>
                    </InputBase>
                  </WithFormControlContext(InputBase)>
                </WithStyles(WithFormControlContext(InputBase))>
              </Input>
            </WithStyles(Input)>
          </div>
        </FormControl>
      </WithStyles(FormControl)>
    </TextField>
  </ReduxInputText>
</withReduxAdapter(ReduxInputText)>
`;

exports[`<ReduxInputText /> should render correctly 1`] = `
<withReduxAdapter(ReduxInputText)
  input={
    Object {
      "name": "input",
      "onBlur": [MockFunction],
      "onChange": [MockFunction],
      "onDragStart": [MockFunction],
      "onDrop": [MockFunction],
      "onFocus": [MockFunction],
    }
  }
  meta={
    Object {
      "active": true,
      "asyncValidating": false,
      "autofilled": false,
      "dirty": false,
      "dispatch": [MockFunction],
      "form": "form",
      "invalid": false,
      "pristine": false,
      "submitFailed": false,
      "submitting": true,
      "touched": false,
      "valid": false,
      "visited": false,
    }
  }
>
  <ReduxInputText
    id="input"
    input={
      Object {
        "name": "input",
        "onBlur": [MockFunction],
        "onChange": [MockFunction],
        "onDragStart": [MockFunction],
        "onDrop": [MockFunction],
        "onFocus": [MockFunction],
      }
    }
    meta={
      Object {
        "active": true,
        "asyncValidating": false,
        "autofilled": false,
        "dirty": false,
        "dispatch": [MockFunction],
        "form": "form",
        "invalid": false,
        "pristine": false,
        "submitFailed": false,
        "submitting": true,
        "touched": false,
        "valid": false,
        "visited": false,
      }
    }
    name="input"
    onBlur={[MockFunction]}
    onChange={[MockFunction]}
    onDragStart={[MockFunction]}
    onDrop={[MockFunction]}
    onFocus={[MockFunction]}
  >
    <TextField
      id="input"
      input={
        Object {
          "name": "input",
          "onBlur": [MockFunction],
          "onChange": [MockFunction],
          "onDragStart": [MockFunction],
          "onDrop": [MockFunction],
          "onFocus": [MockFunction],
        }
      }
      meta={
        Object {
          "active": true,
          "asyncValidating": false,
          "autofilled": false,
          "dirty": false,
          "dispatch": [MockFunction],
          "form": "form",
          "invalid": false,
          "pristine": false,
          "submitFailed": false,
          "submitting": true,
          "touched": false,
          "valid": false,
          "visited": false,
        }
      }
      name="input"
      onBlur={[MockFunction]}
      onChange={[MockFunction]}
      onDragStart={[MockFunction]}
      onDrop={[MockFunction]}
      onFocus={[MockFunction]}
      required={false}
      select={false}
      variant="standard"
    >
      <WithStyles(FormControl)
        input={
          Object {
            "name": "input",
            "onBlur": [MockFunction],
            "onChange": [MockFunction],
            "onDragStart": [MockFunction],
            "onDrop": [MockFunction],
            "onFocus": [MockFunction],
          }
        }
        meta={
          Object {
            "active": true,
            "asyncValidating": false,
            "autofilled": false,
            "dirty": false,
            "dispatch": [MockFunction],
            "form": "form",
            "invalid": false,
            "pristine": false,
            "submitFailed": false,
            "submitting": true,
            "touched": false,
            "valid": false,
            "visited": false,
          }
        }
        onDragStart={[MockFunction]}
        onDrop={[MockFunction]}
        required={false}
        variant="standard"
      >
        <FormControl
          classes={
            Object {
              "fullWidth": "MuiFormControl-fullWidth-4",
              "marginDense": "MuiFormControl-marginDense-3",
              "marginNormal": "MuiFormControl-marginNormal-2",
              "root": "MuiFormControl-root-1",
            }
          }
          component="div"
          disabled={false}
          error={false}
          fullWidth={false}
          input={
            Object {
              "name": "input",
              "onBlur": [MockFunction],
              "onChange": [MockFunction],
              "onDragStart": [MockFunction],
              "onDrop": [MockFunction],
              "onFocus": [MockFunction],
            }
          }
          margin="none"
          meta={
            Object {
              "active": true,
              "asyncValidating": false,
              "autofilled": false,
              "dirty": false,
              "dispatch": [MockFunction],
              "form": "form",
              "invalid": false,
              "pristine": false,
              "submitFailed": false,
              "submitting": true,
              "touched": false,
              "valid": false,
              "visited": false,
            }
          }
          onDragStart={[MockFunction]}
          onDrop={[MockFunction]}
          required={false}
          variant="standard"
        >
          <div
            className="MuiFormControl-root-1"
            input={
              Object {
                "name": "input",
                "onBlur": [MockFunction],
                "onChange": [MockFunction],
                "onDragStart": [MockFunction],
                "onDrop": [MockFunction],
                "onFocus": [MockFunction],
              }
            }
            meta={
              Object {
                "active": true,
                "asyncValidating": false,
                "autofilled": false,
                "dirty": false,
                "dispatch": [MockFunction],
                "form": "form",
                "invalid": false,
                "pristine": false,
                "submitFailed": false,
                "submitting": true,
                "touched": false,
                "valid": false,
                "visited": false,
              }
            }
            onDragStart={[MockFunction]}
            onDrop={[MockFunction]}
          >
            <WithStyles(Input)
              id="input"
              name="input"
              onBlur={[MockFunction]}
              onChange={[MockFunction]}
              onFocus={[MockFunction]}
            >
              <Input
                classes={
                  Object {
                    "disabled": "MuiInput-disabled-8",
                    "error": "MuiInput-error-10",
                    "focused": "MuiInput-focused-7",
                    "formControl": "MuiInput-formControl-6",
                    "fullWidth": "MuiInput-fullWidth-12",
                    "input": "MuiInput-input-13",
                    "inputMarginDense": "MuiInput-inputMarginDense-14",
                    "inputMultiline": "MuiInput-inputMultiline-15",
                    "inputType": "MuiInput-inputType-16",
                    "inputTypeSearch": "MuiInput-inputTypeSearch-17",
                    "multiline": "MuiInput-multiline-11",
                    "root": "MuiInput-root-5",
                    "underline": "MuiInput-underline-9",
                  }
                }
                id="input"
                name="input"
                onBlur={[MockFunction]}
                onChange={[MockFunction]}
                onFocus={[MockFunction]}
              >
                <WithStyles(WithFormControlContext(InputBase))
                  classes={
                    Object {
                      "disabled": "MuiInput-disabled-8",
                      "error": "MuiInput-error-10",
                      "focused": "MuiInput-focused-7",
                      "formControl": "MuiInput-formControl-6",
                      "fullWidth": "MuiInput-fullWidth-12",
                      "input": "MuiInput-input-13",
                      "inputMarginDense": "MuiInput-inputMarginDense-14",
                      "inputMultiline": "MuiInput-inputMultiline-15",
                      "inputType": "MuiInput-inputType-16",
                      "inputTypeSearch": "MuiInput-inputTypeSearch-17",
                      "multiline": "MuiInput-multiline-11",
                      "root": "MuiInput-root-5 MuiInput-underline-9",
                      "underline": null,
                    }
                  }
                  fullWidth={false}
                  id="input"
                  inputComponent="input"
                  multiline={false}
                  name="input"
                  onBlur={[MockFunction]}
                  onChange={[MockFunction]}
                  onFocus={[MockFunction]}
                  type="text"
                >
                  <WithFormControlContext(InputBase)
                    classes={
                      Object {
                        "adornedEnd": "MuiInputBase-adornedEnd-23",
                        "adornedStart": "MuiInputBase-adornedStart-22",
                        "disabled": "MuiInputBase-disabled-21 MuiInput-disabled-8",
                        "error": "MuiInputBase-error-24 MuiInput-error-10",
                        "focused": "MuiInputBase-focused-20 MuiInput-focused-7",
                        "formControl": "MuiInputBase-formControl-19 MuiInput-formControl-6",
                        "fullWidth": "MuiInputBase-fullWidth-27 MuiInput-fullWidth-12",
                        "input": "MuiInputBase-input-28 MuiInput-input-13",
                        "inputAdornedEnd": "MuiInputBase-inputAdornedEnd-34",
                        "inputAdornedStart": "MuiInputBase-inputAdornedStart-33",
                        "inputMarginDense": "MuiInputBase-inputMarginDense-29 MuiInput-inputMarginDense-14",
                        "inputMultiline": "MuiInputBase-inputMultiline-30 MuiInput-inputMultiline-15",
                        "inputType": "MuiInputBase-inputType-31 MuiInput-inputType-16",
                        "inputTypeSearch": "MuiInputBase-inputTypeSearch-32 MuiInput-inputTypeSearch-17",
                        "marginDense": "MuiInputBase-marginDense-25",
                        "multiline": "MuiInputBase-multiline-26 MuiInput-multiline-11",
                        "root": "MuiInputBase-root-18 MuiInput-root-5 MuiInput-underline-9",
                      }
                    }
                    fullWidth={false}
                    id="input"
                    inputComponent="input"
                    multiline={false}
                    name="input"
                    onBlur={[MockFunction]}
                    onChange={[MockFunction]}
                    onFocus={[MockFunction]}
                    type="text"
                  >
                    <InputBase
                      classes={
                        Object {
                          "adornedEnd": "MuiInputBase-adornedEnd-23",
                          "adornedStart": "MuiInputBase-adornedStart-22",
                          "disabled": "MuiInputBase-disabled-21 MuiInput-disabled-8",
                          "error": "MuiInputBase-error-24 MuiInput-error-10",
                          "focused": "MuiInputBase-focused-20 MuiInput-focused-7",
                          "formControl": "MuiInputBase-formControl-19 MuiInput-formControl-6",
                          "fullWidth": "MuiInputBase-fullWidth-27 MuiInput-fullWidth-12",
                          "input": "MuiInputBase-input-28 MuiInput-input-13",
                          "inputAdornedEnd": "MuiInputBase-inputAdornedEnd-34",
                          "inputAdornedStart": "MuiInputBase-inputAdornedStart-33",
                          "inputMarginDense": "MuiInputBase-inputMarginDense-29 MuiInput-inputMarginDense-14",
                          "inputMultiline": "MuiInputBase-inputMultiline-30 MuiInput-inputMultiline-15",
                          "inputType": "MuiInputBase-inputType-31 MuiInput-inputType-16",
                          "inputTypeSearch": "MuiInputBase-inputTypeSearch-32 MuiInput-inputTypeSearch-17",
                          "marginDense": "MuiInputBase-marginDense-25",
                          "multiline": "MuiInputBase-multiline-26 MuiInput-multiline-11",
                          "root": "MuiInputBase-root-18 MuiInput-root-5 MuiInput-underline-9",
                        }
                      }
                      fullWidth={false}
                      id="input"
                      inputComponent="input"
                      muiFormControl={
                        Object {
                          "adornedStart": false,
                          "disabled": false,
                          "error": false,
                          "filled": false,
                          "focused": false,
                          "margin": "none",
                          "onBlur": [Function],
                          "onEmpty": [Function],
                          "onFilled": [Function],
                          "onFocus": [Function],
                          "required": false,
                          "variant": "standard",
                        }
                      }
                      multiline={false}
                      name="input"
                      onBlur={[MockFunction]}
                      onChange={[MockFunction]}
                      onFocus={[MockFunction]}
                      type="text"
                    >
                      <div
                        className="MuiInputBase-root-18 MuiInput-root-5 MuiInput-underline-9 MuiInputBase-formControl-19 MuiInput-formControl-6"
                        onClick={[Function]}
                      >
                        <input
                          aria-invalid={false}
                          className="MuiInputBase-input-28 MuiInput-input-13"
                          disabled={false}
                          id="input"
                          name="input"
                          onBlur={[Function]}
                          onChange={[Function]}
                          onFocus={[Function]}
                          required={false}
                          type="text"
                        />
                      </div>
                    </InputBase>
                  </WithFormControlContext(InputBase)>
                </WithStyles(WithFormControlContext(InputBase))>
              </Input>
            </WithStyles(Input)>
          </div>
        </FormControl>
      </WithStyles(FormControl)>
    </TextField>
  </ReduxInputText>
</withReduxAdapter(ReduxInputText)>
`;
